\relax 
\providecommand\hyper@newdestlabel[2]{}
\catcode `"\active 
\providecommand\HyperFirstAtBeginDocument{\AtBeginDocument}
\HyperFirstAtBeginDocument{\ifx\hyper@anchor\@undefined
\global\let\oldcontentsline\contentsline
\gdef\contentsline#1#2#3#4{\oldcontentsline{#1}{#2}{#3}}
\global\let\oldnewlabel\newlabel
\gdef\newlabel#1#2{\newlabelxx{#1}#2}
\gdef\newlabelxx#1#2#3#4#5#6{\oldnewlabel{#1}{{#2}{#3}}}
\AtEndDocument{\ifx\hyper@anchor\@undefined
\let\contentsline\oldcontentsline
\let\newlabel\oldnewlabel
\fi}
\fi}
\global\let\hyper@last\relax 
\gdef\HyperFirstAtBeginDocument#1{#1}
\providecommand\HyField@AuxAddToFields[1]{}
\providecommand\HyField@AuxAddToCoFields[2]{}
\babel@aux{ngerman}{}
\@writefile{toc}{\contentsline {section}{\numberline {1}Wichtige Formeln}{1}{section.1}}
\@writefile{toc}{\contentsline {section}{\numberline {2}Darstellung von Parabeln}{1}{section.2}}
\@writefile{toc}{\contentsline {subsection}{\numberline {2.1}Umformen in andere Darstellungen}{1}{subsection.2.1}}
\@writefile{toc}{\contentsline {subsubsection}{\numberline {2.1.1}Normalform nach Scheitelform}{1}{subsubsection.2.1.1}}
\@writefile{toc}{\contentsline {subsubsection}{\numberline {2.1.2}Scheitelform nach Nullstellenform}{2}{subsubsection.2.1.2}}
\@writefile{toc}{\contentsline {subsubsection}{\numberline {2.1.3}Nullstellenform/ScheitelForm nach Normalform}{3}{subsubsection.2.1.3}}
\@writefile{toc}{\contentsline {subsubsection}{\numberline {2.1.4}Nullstellenform nach Scheitelform}{3}{subsubsection.2.1.4}}
\@writefile{toc}{\contentsline {subsubsection}{\numberline {2.1.5}Normalform nach Nullstellenform}{4}{subsubsection.2.1.5}}
\@writefile{toc}{\contentsline {subsubsection}{\numberline {2.1.6}Beispiel von Normalform nach Scheitelform nach Nullstellenform}{5}{subsubsection.2.1.6}}
\@writefile{toc}{\contentsline {subsection}{\numberline {2.2}Ablesen aus dem Funktionsgraphen}{6}{subsection.2.2}}
\@writefile{toc}{\contentsline {subsubsection}{\numberline {2.2.1}Normalform}{6}{subsubsection.2.2.1}}
\@writefile{toc}{\contentsline {subsubsection}{\numberline {2.2.2}Scheitelform}{6}{subsubsection.2.2.2}}
\@writefile{toc}{\contentsline {subsubsection}{\numberline {2.2.3}Nullstellenform}{7}{subsubsection.2.2.3}}
\@writefile{toc}{\contentsline {subsection}{\numberline {2.3}Interpretation der Funktion}{7}{subsection.2.3}}
